{
    "response": {
        "data": [
            {
                "price": 90,
                "name": "Vanilla Icecream Scoop",
                "id":1,
                "quantity":0,
                "url": "https://res.cloudinary.com/db5furjnj/image/upload/v1651656710/63971154_l7vqmm.gif"
            },
            {
                "price": 122,
                "name": "ButterScotch Icebar",
                "id":2,
                "quantity":0,
                "url": "https://res.cloudinary.com/db5furjnj/image/upload/v1651659039/images_xkacoe.jpg"
                
            },
            {
                "price": 80,
                "name": "Chocolate Icecream",
                "id":3,
                "quantity":0,
                "url": "https://res.cloudinary.com/db5furjnj/image/upload/v1651658310/unnamed_jlhw1q.jpg"
            },
            {
                "price": 115,
                "name": "PowderKeg Custord",
                "id":4,
                "quantity":0,
                "url": "https://res.cloudinary.com/db5furjnj/image/upload/v1651656710/63971154_l7vqmm.gif"
            },
            {
                "price": 210,
                "name": "Frozen Peanut Bar Icecream",
                "id":5,
                "quantity":0,
                "url": "https://res.cloudinary.com/db5furjnj/image/upload/v1651656710/63971154_l7vqmm.gif"
            }
        ]
    }
}